background-image: -moz-linear-gradient( 50deg, rgb(9,9,9) 0%, rgb(107,25,25) 72%, rgb(205,41,41) 100%);
    background-image: -webkit-linear-gradient( 50deg, rgb(9,9,9) 0%, rgb(107,25,25) 72%, rgb(205,41,41) 100%);
    background-image: -ms-linear-gradient( 50deg, rgb(9,9,9) 0%, rgb(107,25,25) 72%, rgb(205,41,41) 100%);
    opacity: 0.851